Page ID,Name,Location ID,Guide Desccription/Text,Previous Guide Link,Next Guide Link,Screenshot,Action ID
contentWeb,Create new Page,div.actionButton.createPage,"Click here to add personalization to an existing page on your site. You will be redirected to the Orchestrator window where you can browse your site, build variations and inject dynamic content into your pages.",NULL,a.updatePage:first,,
contentWeb,Update Page,a.updatePage:first,Click here to update your dynamic content on an existing page.,div.actionButton.createPage,a.deletePage:first,,
contentWeb,Delete Page,a.deletePage:first,Click here to delete a page. You will also delete the content you have built related to that page.,a.updatePage:first,a.updatePageStatus:first,,
contentWeb,Change status,a.updatePageStatus:first,When you are ready to publish your variations and dynamic content you simply activate the page here. You can deactivate any active page the same way.,a.deletePage:first,span.webix_icon.fa-bars,,
contentWeb,Create/Update folder,span.webix_icon.fa-bars,You can build your own folder structure to organize your pages the way it works best for you.,a.updatePageStatus:first,div.webix_fmanager_back:first,,
contentWeb,Create new Page,div.webix_fmanager_back:first,"You can add personalization to an existing page on your site from here too. You will be redirected to the Orchestrator window where you can browse your site, build variations and inject dynamic content into your pages.",span.webix_icon.fa-bars,div.webix_fmanager_search:first,,
contentWeb,Search pages,div.webix_fmanager_search:first,You can search the pages where you have applied personalization here,div.webix_fmanager_back:first,div.webix_fmanager_modes:first,,
segment,Create new audience,div.actionButton.createSegment,Click here to create a new audience.,NULL,a.updateSegment:first,,
segment,Edit audience,a.updateSegment:first,Click here to edit an existing audience,div.actionButton.createSegment,a.deleteSegment:first,,
segment,Delete Audience,a.deleteSegment:first,"Click here to permanently delete an existing audience. When you delete a audience, all historic reporting on that segment is also deleted. If you want to keep the historic data just deactivate the segment instead of deleting it.",a.updateSegment:first,a.updateSegmentStatus:first,,
segment,Change status,a.updateSegmentStatus:first,Activate or de-activate the calculation of a audience,a.deleteSegment:first,div.webix_fmanager_back:first,,
segment,Create/Update folder ,div.webix_fmanager_back:first,You can build your own folder structure from here,a.updateSegmentStatus:first,div.webix_fmanager_search:first,,
segment,Search audience,div.webix_fmanager_search:first,You can search existing audiences here,div.webix_fmanager_back:first,div.webix_fmanager_modes:first,,
addsegment,Name,div.wizardStepBtn.Basic,Simply add name and a description of the audience you are building,NULL,div.wizardStepBtn.Conditions,,
addsegment,Condition builder,div.wizardStepBtn.Conditions,Define the condition that include a visitor in the audience,div.wizardStepBtn.Basic,div.wizardStepBtn.Confirm,,
addsegment,Confirm audience,div.wizardStepBtn.Confirm,Confirm and save your audience definition,div.wizardStepBtn.Conditions,NULL,,
editsegment,Name,div.wizardStepBtn.Basic,Update name and description of your audience,NULL,div.wizardStepBtn.Conditions,,
editsegment,Condition builder,div.wizardStepBtn.Conditions,Define the condition that adds a visitor to the audience,div.wizardStepBtn.Basic,div.wizardStepBtn.Confirm,,
editsegment,Confirm audience,div.wizardStepBtn.Confirm,Confirm and save to update your audience,div.wizardStepBtn.Conditions,NULL,,
goals,Create new goal,div.actionButton.createGoal,Click here to create a new goal,NULL,a.updateGoal:first,,
goals,Edit goal,a.updateGoal:first,Click here to edit an existing goal,div.actionButton.createGoal,a.deleteGoal:first,,
goals,Delete goal,a.deleteGoal:first,Click here to delete an existing goal. All historical conversion data on the goal will be deleted. If you want to keep this information - select deactivate instead of delete.,a.updateGoal:first,a.updateGoalStatus:first,,
goals,Change status,a.updateGoalStatus:first,Activate or de-activate status,a.deleteGoal:first,span.webix_icon.fa-bars,,
goals,Create/update folder,span.webix_icon.fa-bars,Organize your goals in folders the way it make sense to you.,a.updateGoalStatus:first,div.webix_fmanager_search:first,,
goals,Search goal,div.webix_fmanager_search:first,Search existing goals,span.webix_icon.fa-bars,div.webix_fmanager_modes:first,,
addgoals,Name,div.wizardStepBtn.Basic,Simply add name and type of the goal,NULL,div.wizardStepBtn.Placement,,
addgoals,Placement,div.wizardStepBtn.Placement,Select the target page for the goal,div.wizardStepBtn.Basic,div.wizardStepBtn.Conditions,,
addgoals,Condition builder,div.wizardStepBtn.Conditions,Define condition for the goal,div.wizardStepBtn.Placement,div.wizardStepBtn.Confirm,,
addgoals,Confirm goal,div.wizardStepBtn.Confirm,Confirm goal settings and save,div.wizardStepBtn.Conditions,div.goalType,,
addgoals,Change goal type,div.goalType,Change goal type,div.wizardStepBtn.Confirm,NULL,,
addgoals,Confirm goal,div.confirmSave:first,Confirm and save goal,NULL,NULL,,NULL
editgoals,Name,div.wizardStepBtn.Basic,Update name and goal type here,NULL,div.wizardStepBtn.Placement,,
editgoals,Placement,div.wizardStepBtn.Placement,Update target page for goal here,div.wizardStepBtn.Basic,div.wizardStepBtn.Conditions,,
editgoals,Condition builder,div.wizardStepBtn.Conditions,Update condition for goal,div.wizardStepBtn.Placement,div.wizardStepBtn.Confirm,,
editgoals,Confirm goal,div.wizardStepBtn.Confirm,Confirm goal settings and save,div.wizardStepBtn.Conditions,div.goalType,,
editgoals,Change goal type,div.goalType,Goal type can not be changed,div.wizardStepBtn.Confirm,NULL,,
experiment,Create new experience,div.actionButton.createExperiment,Create new experience,NULL,a.updateExperiment:first,,
experiment,Edit experience,a.updateExperiment:first,Edit existing experience,div.actionButton.createExperiment,a.deleteExperiment:first,,
experiment,Delete experience,a.deleteExperiment:first,Permanently delete experience,a.updateExperiment:first,a.updateExperimentStatus:first,,
experiment,Change status,a.updateExperimentStatus:first,Activate or de-activate experience,a.deleteExperiment:first,a.viewReport:first,,
experiment,Report,a.viewReport:first,Open the report on your experience performance,a.updateExperimentStatus:first,span.webix_icon.fa-bars,,
experiment,Create/update folder,span.webix_icon.fa-bars,Create/update folders for experiences,a.viewReport:first,NULL,,
addexperiment,Name,div.wizardStepBtn.SegmentAndGoal,"Define experience name, target audience and goal",NULL,div.wizardStepBtn.Placement,,
addexperiment,Placement,div.wizardStepBtn.Placement,Create the user experience on one or more pages using the Orchestrator UI,div.wizardStepBtn.SegmentAndGoal,div.wizardStepBtn.Confirm,,
addexperiment,Confirm experience,div.wizardStepBtn.Confirm,Define the size of the experience control group and what action should be taken when experience has a statistically significant result.,div.wizardStepBtn.Placement,div.selectSegment,,
addexperiment,Select audience,div.selectSegment,Audience you create/select inside an experience will be linked to that experiment only. ,div.wizardStepBtn.Confirm,div.selectGoal,,
addexperiment,Select goal,div.selectGoal,Goal you create/select inside an experience will be linked to that experiment only. ,div.selectSegment,NULL,,
addexperiment,Create page,div.createExperimentBtn:first,Create new page experience that is included in the experience,NULL,span.editPageFromExp:first,,experience
addexperiment,Edit page,span.editPageFromExp:first,Edit existing page which is part of the experience.,div.createExperimentBtn:first,span.deletePageFromExp:first,,experience
addexperiment,Delete page,span.deletePageFromExp:first,Permanently delete experience page. Pages can be part of multiple experiences. Deleting a page in one experience does not impact the page in another experience.,span.editPageFromExp:first,NULL,,experience
editexperiment,Name,div.wizardStepBtn.SegmentAndGoal,"Define experience name, target audience and goal here",null,div.wizardStepBtn.Placement,,
editexperiment,Placement,div.wizardStepBtn.Placement,You can update existing experience pages from here. Please not that whenever you change an experience Monoloop regards it as a start of a new experience in the reporting - so basically your experience data is reset when you change an existing experience.,div.wizardStepBtn.SegmentAndGoal,div.wizardStepBtn.Confirm,,
editexperiment,Confirm experience,div.wizardStepBtn.Confirm,Define control group size of the experience as well as what Monoloop should do whenever there is a significant result of your experience.,div.wizardStepBtn.Placement,div.selectSegment,,
editexperiment,Select audience,div.selectSegment,Trigger the condition builder to create a target audience for your experience.,div.wizardStepBtn.Confirm,div.selectGoal,,
editexperiment,Select goal,div.selectGoal,Select an existing goal or create a new from here,div.selectSegment,null,,
accountProfile,Username,div.username:first,Username can not be changed,NULL,div.account_type:first,,
accountProfile,Account type,div.account_type:first,With agency account you can also create user accounts,div.username:first,NULL,,
controlGroup,Enable,div.enable:first,In Monoloop you can create a global control group that allows you to test the impact of all your experience and conditional content across your site. This works by pushing events to your Google Analytics account for each pageview telling GA if any personalization was injectet into the page.,NULL,div.size:first,,
controlGroup,Size,div.size:first,You have to define the percentage of visitors who should be part of the global control group. Keep it as low as possible as it is directly impacting the time it takes for you to get statistically valid results in your experiences.,div.enable:first,div.days:first,,
controlGroup,Days,div.days:first,Define the number of days a visitor stays in the control group.,div.size:first,NULL,,
codenScript,Copy the code,div.copy_api_token:first,Copy this code and place it in the top of your site templates <head> section. If you use an Monoloop integration for your CMS this is done automatically.,NULL,div.content_delivery:first,,
codenScript,Content delivery,div.content_delivery:first,Select when Monoloop inject content into your site. Instantly inject as soon as Monoloop has processed the request. Fast waits until the DOM Ready event is fired. Secure waits until Document Ready event is fired. ,div.copy_api_token:first,div.anti_flicker:first,,
codenScript,Anti flicker,div.anti_flicker:first,"The Anti flicker option enable you to hide the body tag of your page for a specified range of miliseconds. This enable Monoloop to inject content and the page to restructure without the visitor seing any visible flicker. When Monoloop has injected content, the body is automatically released. If Monoloop does not respond before the timeout you have configured, the body is also released. Please note, that your pageload is not impacted by this feature - all page assets are loading normally in the background without delay.",div.content_delivery:first,div.timeout:first,,
codenScript,Timeout,div.timeout:first,"Configure the timeout in miliseconds. Typical values is between 500-1.500, but experiment with what works best for your site.",div.anti_flicker:first,div.pre_invocation:first,,
codenScript,Pre Invocation,div.pre_invocation:first,Here you can add javascript that is run just before your site request Monoloop for any personalized content for a pageview.,div.timeout:first,div.post_invocation:first,,
codenScript,Post Invocation,div.post_invocation:first,Here you can add javascript that is run just after Monoloop has returned content for your page.,div.pre_invocation:first,NULL,,
accountApiToken,Host,div.host:first,This is the endpoint you will query using the account ID and API token.,NULL,div.account_id:first,,
accountApiToken,Account,div.account_id:first,This is your account ID. It has to be part of every request to the Monoloop API endpoint to be able to authenticate your request.,div.host:first,div.api_token:first,,
accountApiToken,API Token,div.api_token:first,This is the API Token. Only one token is created per account and it has to be part of every request to the Monoloop API endpoint to be able to authenticate your request.,div.account_id:first,div.copy_api_token:first,,
accountApiToken,Copy API Token,div.copy_api_token:first,Copy API Token to your clipboard.,div.api_token:first,NULL,,
accountPlugin,Update status,span.updateStatus:first,Activate or de-activate plugin,NULL,NULL,,
users,Create user,div.createAccount:first,Create user and define their rights to your account.,NULL,span.updateStatus:first,,
users,Change status,span.updateStatus:first,Activate or deactivate user access to your account.,div.createAccount:first,span.editUser:first,,
users,Update user,span.editUser:first,Update user information and access rights.,span.updateStatus:first,span.deleteUser:first,,
users,Delete user,span.deleteUser:first,Permanently delete user from your account.,span.editUser:first,NULL,,
users,Email,div.ip_email:first,Write valid email address of the user as we send an invite email to this address. User has to click activation link in this email in order to activate the new account.,div.ip_lastname:first,div.ip_hidden:first,,newUserPopup
users,Disabled User,div.ip_hidden:first,Click here to temporarily disable user access to your account.,div.ip_confirmEmail:first,div.ip_is_monoloop_admin:first,,newUserPopup
users,Is admin,div.ip_is_monoloop_admin:first,Give user admin rights or define individual user rights to our account.,div.ip_hidden:first,div.ip_support_type:first,,newUserPopup
users,Monoloop support type,div.ip_support_type:first,Give Monoloop tech support access to your account. You can make this access permanent or limit it until a specific date.,div.ip_is_monoloop_admin:first,div.saveBtn:first,,newUserPopup
users,Email,div.ip_email:first,Make sure the users email address is correct as we will send a confirmation email to this address with activation link in order to reactivate the user account.,div.ip_lastname:first,div.ip_hidden:first,,editUserPopup
users,Disabled User,div.ip_hidden:first,You can quickly enable/disable the users access to your account here.,div.ip_confirmEmail:first,div.ip_is_monoloop_admin:first,,editUserPopup
users,Is admin,div.ip_is_monoloop_admin:first,You can give the user Admin rights or individually configure what part of your account the user should have access to.,div.ip_hidden:first,div.ip_support_type:first,,editUserPopup
users,Monoloop support type,div.ip_support_type:first,Give Monoloop tech support access to your account. You can make this access permanent or limit it until a specific date.,div.ip_is_monoloop_admin:first,div.saveBtn:first,,editUserPopup
clientAccounts,Create user,div.createUserAccount:first,To create a client account you need to create a user for the client. This user is the legal responsible for the Monoloop service on their site,NULL,span.updateStatus:first,,
clientAccounts,Change status,span.updateStatus:first,Enable and disable a client user access to the platform here,div.createUserAccount:first,span.editUser:first,,
clientAccounts,Update user,span.editUser:first,Edit the user account information as well as the account type,span.updateStatus:first,span.deleteUser:first,,
clientAccounts,Delete user,span.deleteUser:first,Permanently remove the client account and disable all access to Monoloop UI and tracked information,span.editUser:first,NULL,,
clientAccounts,First name,div.ip_firstname:first,Write the name of the legally responsible person on client side.,NULL,div.ip_email:first,,newClientAccountPopup
clientAccounts,Email,div.ip_email:first,Enter email of client. We will send confirmation email to this address and the client has to click the activation link in order to activate the account.,div.ip_lastname:first,div.ip_company:first,,newClientAccountPopup
clientAccounts,Company name,div.ip_company:first,Write client organization name here,div.ip_confirmEmail:first,div.ip_invoice_through_agency:first,,newClientAccountPopup
clientAccounts,Invoice through agency,div.ip_invoice_through_agency:first,Choose who should be billed the use of the paid account. Agency discounts require that billings go through the agency.,div.ip_company:first,div.ip_account_type:first,,newClientAccountPopup
clientAccounts,Account type,div.ip_account_type:first,Select the required account type.,div.ip_invoice_through_agency:first,div.saveBtn:first,,newClientAccountPopup
clientAccounts,Save Client,div.saveBtn:first,Save everything and notify the client about the account creation. Client user will receive a email that includes an activation link. Activation is required before Monoloop starts tracking client traffic.,div.ip_account_type:first,NULL,,newClientAccountPopup
clientAccounts,First name,div.ip_firstname:first,Change name of legally responsible person on the client side.,NULL,div.ip_email:first,,editClientAccountPopup
clientAccounts,Email,div.ip_email:first,Edit email of client. We will send confirmation email to this address and the client has to click the activation link in order to activate the account.,div.ip_lastname:first,div.ip_company:first,,editClientAccountPopup
clientAccounts,Company name,div.ip_company:first,Change the name of company from here,div.ip_confirmEmail:first,div.ip_invoice_through_agency:first,,editClientAccountPopup
clientAccounts,Invoice through agency,div.ip_invoice_through_agency:first,Change invoice type from here,div.ip_company:first,div.ip_account_type:first,,editClientAccountPopup
clientAccounts,Account type,div.ip_account_type:first,Change account type from here,div.ip_invoice_through_agency:first,div.saveBtn:first,,editClientAccountPopup
clientAccounts,Save Client,div.saveBtn:first,Click here to save changes and notify client.,div.ip_account_type:first,NULL,,editClientAccountPopup
accountScore,Click depth,div.clickdepth:first,Click depth,NULL,div.duration:first,,
accountScore,Duration,div.duration:first,Duration,div.clickdepth:first,div.recency:first,,
accountScore,Recency,div.recency:first,Recency,div.duration:first,div.latency:first,,
accountScore,Latency,div.latency:first,Latency,div.recency:first,NULL,,
accountDomain,Create domain,div.createNewDomain:first,"To serve personalization on your site, you need to registrate your domain name. This is where you start out. Only add the domain itself - no prefix like http://www...",NULL,div.testDomains:first,,
accountDomain,Test domain,div.testDomains:first,Check that Monoloops script is available and placed correctly on your site. It only test the homepage - so if you placed our script manually please make sure it is included in the global page template and located as high in the <head> tag as possible.,div.createNewDomain:first,span.editDomain:first,,
accountDomain,Update domain,span.editDomain:first,Edit your domain information here,div.testDomains:first,span.deleteDomain:first,,
accountDomain,Delete domain,span.deleteDomain:first,Permanently delete domain here :-),span.editDomain:first,NULL,,
accountDomain,Domain name,div.def_domain:first,"Write a valid domain name here. Only the domain name, no prefix.",NULL,div.def_url_privacy:first,,newDomainPopup
accountDomain,Privacy Policy URL ,div.def_url_privacy:first,Enter the URL for your privacy policy page. It is required in most markeds and should include information of how you handle cookies and personally identifiable information.,div.def_domain:first,div.def_privacy_option:first,,newDomainPopup
accountDomain,Action,div.def_privacy_option:first,For Free accounts Monoloop automatically serves the Privacy Center on all your pages in a discrete widget. For paid accounts you have the option to select if Monoloop should serve it on your Privacy Policy page only or on another custom page of your choice.,div.def_url_privacy:first,div.custommizeDomain:first,,newDomainPopup
accountDomain,Customize,div.custommizeDomain:first,Click here to customize domain,div.def_privacy_option:first,div.saveBtn:first,,newDomainPopup
accountDomain,Save,div.saveBtn:first,Click here to save your domain information,div.custommizeDomain:first,NULL,,newDomainPopup
accountDomain,Enable,div.cus_privacy_usecustom:first,Here you can customize the privacy statement of the Privacy Center that Monoloop serves on your site. You can also translate the labels in the Privacy Center to your local language as well.,NULL,div.cus_default:first,,customizePopup
accountDomain,Default,div.cus_default:first,Click here to reset the Privacy Center to default policy and English labels.,div.cus_privacy_usecustom:first,div.okCustomSaveBtn:first,,customizePopup
accountApplication,Create application,div.createApplication:first,Applications are code that you host which consume messages from Monoloop. These messages are triggered by changes in customer profiles and can be carrying a payload of profile information of your choice.,NULL,span.editApplication:first,,
accountApplication,Update application,span.editApplication:first,Change settings for an existing application.,div.createApplication:first,span.deleteApplication:first,,
accountApplication,Delete application,span.deleteApplication:first,Permanently delete an existing application,span.editApplication:first,NULL,,
accountApplication,Application Privacy,div.access_type:first,Define if the application is visible for others or private only.,NULL,div.option_trigger:first,,newApplicationPopup
accountApplication,Option trigger,div.option_trigger:first,Select what event should trigger the message being fired to our application.,div.access_type:first,NULL,,newApplicationPopup
accountLog,Account audit log,#webixlogsElement table tr:first,"This is the auditlog for your account. Here you can see all activities done in monoloop interface with user, time ,date and IP address.",NULL,NULL,,
placementWindow,Browse mode,div.searchBtnGroup:first,In Browse mode you can browse your site like in any browser. Go to the page you want to modify with variations or personalized content and click the Edit tab,NULL,div.edit_record:first,,
placementWindow,Edit mode,div.edit_record:first,In Edit mode you can select every element on the page and build variations of existing elements or inject new content elements. You can add variations and content to experiences to measure how your personalization is performing against a defined goal.,div.searchBtnGroup:first,div.testbench:first,,
placementWindow,Test bench,div.testbench:first,Test mode is a testbench for your content and the conditions you have specified to trigger it. Left panel lists all the parameters you have used to build conditions for the content you have added to the page. When you change the parameter values - the main panel will render the result and show you how the page will look like for a visitor with a profile similar to what you have entered. In the lower part of the left panel you have the option to generate a link for the specific combination of parameters you are testing. This link you can forward to anyone who should see the resulting page - for approval or regulatory requirements. The page will contain a list of the parameters used and the rendered page.,div.edit_record:first,div.publish:first,,
placementWindow,Save,div.publish:first,"Save is where you decide if the content changes you have applied are served on the current page only, a branch below the page or at URLs with specific properties.",div.testbench:first,NULL,,
placementWindowEdit,Create segment & goal,div.floatingContainer:first,Create audience & goal,NULL,NULL,,
placementWindowEditContentOptions,Add variation,#content_options .webix_list_item:nth-child(1),Edit highlighted content and then select Add variation to create a new variation. Define condition for variation to target a specific audience.,NULL,#content_options .webix_list_item:nth-child(2),,
placementWindowEditContentOptions,Hide variation,#content_options .webix_list_item:nth-child(2),Highligt a content element on the page and select this option to hide it.,#content_options .webix_list_item:nth-child(1),NULL,,
,,,,,,,
placementWindowEditContentOptionsAddVar,Name,div.add_variation_title:first,"Try to give your variations a descriptive name, it makes the reporting more meaningfull later.",NULL,div.conditionIcon:first,,
placementWindowEditContentOptionsAddVar,Add condition,div.conditionIcon:first,This trigger the condition builder from where you define the audience who should see the variation.,div.add_variation_title:first,div.addSaveBtn:first,,
placementWindowEditContentOptionsAddVar,Save variation,div.addSaveBtn:first,When finished with content and condition save everything here.,div.conditionIcon:first,NULL,,
,,,,,,,
placementWindowEditContentOptionsHasVar,Add variation,#content_options .webix_list_item:nth-child(1),Add a variation - change whatever you like in the highligted content element using the inline editor. When you are finished simply click this option.,NULL,#content_options .webix_list_item:nth-child(2),,
placementWindowEditContentOptionsHasVar,Add to experience,#content_options .webix_list_item:nth-child(2),Add variations to an experience. All variations and their audience conditions are linked to a new or existing experiement.,#content_options .webix_list_item:nth-child(1),#content_options .webix_list_item:nth-child(3),,
placementWindowEditContentOptionsHasVar,Hide variation,#content_options .webix_list_item:nth-child(3),Hide a content element here.,#content_options .webix_list_item:nth-child(2),NULL,,
,,,,,,,
placementWindowEditContentOptionsUpdate,Add variation,#content_options .webix_list_item:nth-child(1),Create a variation of an existing page element,NULL,#content_options .webix_list_item:nth-child(2),,
placementWindowEditContentOptionsUpdate,Add to experience,#content_options .webix_list_item:nth-child(2),You can add your variation to experience from here,#content_options .webix_list_item:nth-child(1),#content_options .webix_list_item:nth-child(3),,
placementWindowEditContentOptionsUpdate,Hide variation,#content_options .webix_list_item:nth-child(3),From here you can hide your content,#content_options .webix_list_item:nth-child(2),#content_options .webix_list_item:nth-child(4),,
placementWindowEditContentOptionsUpdate,Update variation,#content_options .webix_list_item:nth-child(4),You can update variation from here,#content_options .webix_list_item:nth-child(3),NULL,,
,,,,,,,
placementWindowEditContentOptionsUpdateVar,Change name,div.update_variation_title:first,You can change name of a variation here.,NULL,div.conditionIcon:first,,
placementWindowEditContentOptionsUpdateVar,Add condition,div.conditionIcon:first,Here you can add/change the condition of the audience who will see this variation,div.update_variation_title:first,NULL,,
,,,,,,,
placementWindowEdit,View Variations ,div.varCountParentClass:first,"You can preview all variations of your page element here. Your can also edit ,delete or change the status of any variation in the list.",div.floatingContainer:first,NULL,,
,,,,,,,
placementWindowEditContentListVariation,Change status,a.updateStatus:first,Here you enable/disable the variation.,NULL,a.updateVariationIcon:first,,
placementWindowEditContentListVariation,Update variation,a.updateVariationIcon:first,Click here to edit variation content.,a.updateStatus:first,a.updateVariationConditionIcon:first,,
placementWindowEditContentListVariation,Add condition,a.updateVariationConditionIcon:first,Click here to change the audience condition.,a.updateVariationIcon:first,a.deleteVariationIcon:first,,
placementWindowEditContentListVariation,Delete variation,a.deleteVariationIcon:first,Click here to delete the variation.,a.updateVariationConditionIcon:first,p.previewCont:first,,
placementWindowEditContentListVariation,Variation Preview,p.previewCont:first,Preview the content of the variation here.,a.deleteVariationIcon:first,NULL,,
conditionBuilder,Condition parameters,div#accordionCondParams,This panel include all the properties of the Monoloop profile. Drag and drop the parameters you need to the right side of the canvas and define your target audience. You can use any number of parameters from the left panel.,NULL,div#headingOne,,
conditionBuilder,Advance condition,div#headingOne,This is the code being executed on our servers. Normally check this if you are not sure if your visual condtion works as expected.,div#accordionCondParams,div#conditionbuilderPanel,,
conditionBuilder,Build conditions here,div#conditionbuilderPanel,Drag parameters on this canvas to build your conditions using AND/OR zones.,div#headingOne,NULL,,
dashboardExperimentdetail,Summary,div.summaryTab:first,This is the brief snapshot of how your experience performs,NULL,div.detailedReportTab:first,,
dashboardExperimentdetail,Detailed dashboard,div.detailedReportTab:first,This is the detailed report of your experience performance,div.summaryTab:first,div.DIV_278:first,,
dashboardExperimentdetail,Timeline,div.DIV_278:first,"This timeline documents all details of who have worked on the experience, what they did and when they did it.",div.detailedReportTab:first,NULL,,
placementWindowTest,Into,div[view_id=testbench-panel],The left panel includes the parameters used in the conditions that trigger your variations. When you change their values - the page will render as it looks for a visitor with that profile information. This way you can easily test if your conditions work as expected.,NULL,div[view_id=static-link-textbox],,
placementWindowTest,Static link,div[view_id=static-link-textbox],If you need to document how a page looks for a specific visitor profile you can enter the profile paramter values and copy this link. You can send it to anyone who will see the profile parameter properties as well as the page content if they click it.,div[view_id=testbench-panel],NULL,,
placementWindowPublish,www,button.webix_custom_checkbox:eq(0),Enable if you want content to trigger for URLs that include www subdomain.,NULL,button.webix_custom_checkbox:eq(1),,
placementWindowPublish,HTTPS,button.webix_custom_checkbox:eq(1),Enable if you want content to trigger for URLS that use https as well as http.,button.webix_custom_checkbox:eq(0),input#regularExpressionWebPageElement,,
placementWindowPublish,Regex,input#regularExpressionWebPageElement,Here you can write a regular expression to match parts of the URL.,button.webix_custom_checkbox:eq(1),div[view_id=urlOptionWebPageElement] div div,,
placementWindowPublish,URL Option,div[view_id=urlOptionWebPageElement] div div,Choose how Monoloop should match the visitor URL to trigger your content.,input#regularExpressionWebPageElement,"div[view_id=""remarkWebPageList""] div textarea",,
placementWindowPublish,Remark,"div[view_id=""remarkWebPageList""] div textarea",Consider to note down a short description of what your content does on the page. It will make your life easier later on.,div[view_id=urlOptionWebPageElement] div div,NULL,,
