[
	{"id":"Pacific/Midway","value":"(UTC-11:00) Midway Island"},
	{"id":"Pacific/Samoa","value":"(UTC-11:00) Samoa"},
	{"id":"Pacific/Honolulu","value":"(UTC-10:00) Hawaii"},
	{"id":"US/Alaska","value":"(UTC-09:00) Alaska"},
	{"id":"America/Los_Angeles","value":"(UTC-08:00) Pacific Time (US &amp; Canada)"},
	{"id":"America/Tijuana","value":"(UTC-08:00) Tijuana"},
	{"id":"US/Arizona","value":"(UTC-07:00) Arizona"},
	{"id":"America/Chihuahua","value":"(UTC-07:00) Chihuahua"},
	{"id":"America/Chihuahua","value":"(UTC-07:00) La Paz"},
	{"id":"America/Mazatlan","value":"(UTC-07:00) Mazatlan"},
	{"id":"US/Mountain","value":"(UTC-07:00) Mountain Time (US &amp; Canada)"},
	{"id":"America/Managua","value":"(UTC-06:00) Central America"},
	{"id":"US/Central","value":"(UTC-06:00) Central Time (US &amp; Canada)"},
	{"id":"America/Mexico_City","value":"(UTC-06:00) Guadalajara"},
	{"id":"America/Mexico_City","value":"(UTC-06:00) Mexico City"},
	{"id":"America/Monterrey","value":"(UTC-06:00) Monterrey"},
	{"id":"Canada/Saskatchewan","value":"(UTC-06:00) Saskatchewan"},
	{"id":"America/Bogota","value":"(UTC-05:00) Bogota"},
	{"id":"US/Eastern","value":"(UTC-05:00) Eastern Time (US &amp; Canada)"},
	{"id":"US/East-Indiana","value":"(UTC-05:00) Indiana (East)"},
	{"id":"America/Lima","value":"(UTC-05:00) Lima"},
	{"id":"America/Bogota","value":"(UTC-05:00) Quito"},
	{"id":"Canada/Atlantic","value":"(UTC-04:00) Atlantic Time (Canada)"},
	{"id":"America/Caracas","value":"(UTC-04:30) Caracas"},
	{"id":"America/La_Paz","value":"(UTC-04:00) La Paz"},
	{"id":"America/Santiago","value":"(UTC-04:00) Santiago"},
	{"id":"Canada/Newfoundland","value":"(UTC-03:30) Newfoundland"},
	{"id":"America/Sao_Paulo","value":"(UTC-03:00) Brasilia"},
	{"id":"America/Argentina/Buenos_Aires","value":"(UTC-03:00) Buenos Aires"},
	{"id":"America/Argentina/Buenos_Aires","value":"(UTC-03:00) Georgetown"},
	{"id":"America/Godthab","value":"(UTC-03:00) Greenland"},
	{"id":"America/Noronha","value":"(UTC-02:00) Mid-Atlantic"},
	{"id":"Atlantic/Azores","value":"(UTC-01:00) Azores"},
	{"id":"Atlantic/Cape_Verde","value":"(UTC-01:00) Cape Verde Is."},
	{"id":"Africa/Casablanca","value":"(UTC+00:00) Casablanca"},
	{"id":"Europe/London","value":"(UTC+00:00) Edinburgh"},
	{"id":"Etc/Greenwich","value":"(UTC+00:00) Greenwich Mean Time : Dublin"},
	{"id":"Europe/Lisbon","value":"(UTC+00:00) Lisbon"},
	{"id":"Europe/London","value":"(UTC+00:00) London"},
	{"id":"Africa/Monrovia","value":"(UTC+00:00) Monrovia"},
	{"id":"UTC","value":"(UTC+00:00) UTC"},
	{"id":"Europe/Amsterdam","value":"(UTC+01:00) Amsterdam"},
	{"id":"Europe/Belgrade","value":"(UTC+01:00) Belgrade"},
	{"id":"Europe/Berlin","value":"(UTC+01:00) Berlin"},
	{"id":"Europe/Berlin","value":"(UTC+01:00) Bern"},
	{"id":"Europe/Bratislava","value":"(UTC+01:00) Bratislava"},
	{"id":"Europe/Brussels","value":"(UTC+01:00) Brussels"},
	{"id":"Europe/Budapest","value":"(UTC+01:00) Budapest"},
	{"id":"Europe/Copenhagen","value":"(UTC+01:00) Copenhagen"},
	{"id":"Europe/Ljubljana","value":"(UTC+01:00) Ljubljana"},
	{"id":"Europe/Madrid","value":"(UTC+01:00) Madrid"},
	{"id":"Europe/Paris","value":"(UTC+01:00) Paris"},
	{"id":"Europe/Prague","value":"(UTC+01:00) Prague"},
	{"id":"Europe/Rome","value":"(UTC+01:00) Rome"},
	{"id":"Europe/Sarajevo","value":"(UTC+01:00) Sarajevo"},
	{"id":"Europe/Skopje","value":"(UTC+01:00) Skopje"},
	{"id":"Europe/Stockholm","value":"(UTC+01:00) Stockholm"},
	{"id":"Europe/Vienna","value":"(UTC+01:00) Vienna"},
	{"id":"Europe/Warsaw","value":"(UTC+01:00) Warsaw"},
	{"id":"Africa/Lagos","value":"(UTC+01:00) West Central Africa"},
	{"id":"Europe/Zagreb","value":"(UTC+01:00) Zagreb"},
	{"id":"Europe/Athens","value":"(UTC+02:00) Athens"},
	{"id":"Europe/Bucharest","value":"(UTC+02:00) Bucharest"},
	{"id":"Africa/Cairo","value":"(UTC+02:00) Cairo"},
	{"id":"Africa/Harare","value":"(UTC+02:00) Harare"},
	{"id":"Europe/Helsinki","value":"(UTC+02:00) Helsinki"},
	{"id":"Europe/Istanbul","value":"(UTC+02:00) Istanbul"},
	{"id":"Asia/Jerusalem","value":"(UTC+02:00) Jerusalem"},
	{"id":"Europe/Helsinki","value":"(UTC+02:00) Kyiv"},
	{"id":"Africa/Johannesburg","value":"(UTC+02:00) Pretoria"},
	{"id":"Europe/Riga","value":"(UTC+02:00) Riga"},
	{"id":"Europe/Sofia","value":"(UTC+02:00) Sofia"},
	{"id":"Europe/Tallinn","value":"(UTC+02:00) Tallinn"},
	{"id":"Europe/Vilnius","value":"(UTC+02:00) Vilnius"},
	{"id":"Asia/Baghdad","value":"(UTC+03:00) Baghdad"},
	{"id":"Asia/Kuwait","value":"(UTC+03:00) Kuwait"},
	{"id":"Europe/Minsk","value":"(UTC+03:00) Minsk"},
	{"id":"Africa/Nairobi","value":"(UTC+03:00) Nairobi"},
	{"id":"Asia/Riyadh","value":"(UTC+03:00) Riyadh"},
	{"id":"Europe/Volgograd","value":"(UTC+03:00) Volgograd"},
	{"id":"Asia/Tehran","value":"(UTC+03:30) Tehran"},
	{"id":"Asia/Muscat","value":"(UTC+04:00) Abu Dhabi"},
	{"id":"Asia/Baku","value":"(UTC+04:00) Baku"},
	{"id":"Europe/Moscow","value":"(UTC+04:00) Moscow"},
	{"id":"Asia/Muscat","value":"(UTC+04:00) Muscat"},
	{"id":"Europe/Moscow","value":"(UTC+04:00) St. Petersburg"},
	{"id":"Asia/Tbilisi","value":"(UTC+04:00) Tbilisi"},
	{"id":"Asia/Yerevan","value":"(UTC+04:00) Yerevan"},
	{"id":"Asia/Kabul","value":"(UTC+04:30) Kabul"},
	{"id":"Asia/Karachi","value":"(UTC+05:00) Islamabad"},
	{"id":"Asia/Karachi","value":"(UTC+05:00) Karachi"},
	{"id":"Asia/Tashkent","value":"(UTC+05:00) Tashkent"},
	{"id":"Asia/Calcutta","value":"(UTC+05:30) Chennai"},
	{"id":"Asia/Kolkata","value":"(UTC+05:30) Kolkata"},
	{"id":"Asia/Calcutta","value":"(UTC+05:30) Mumbai"},
	{"id":"Asia/Calcutta","value":"(UTC+05:30) New Delhi"},
	{"id":"Asia/Calcutta","value":"(UTC+05:30) Sri Jayawardenepura"},
	{"id":"Asia/Katmandu","value":"(UTC+05:45) Kathmandu"},
	{"id":"Asia/Almaty","value":"(UTC+06:00) Almaty"},
	{"id":"Asia/Dhaka","value":"(UTC+06:00) Astana"},
	{"id":"Asia/Dhaka","value":"(UTC+06:00) Dhaka"},
	{"id":"Asia/Yekaterinburg","value":"(UTC+06:00) Ekaterinburg"},
	{"id":"Asia/Rangoon","value":"(UTC+06:30) Rangoon"},
	{"id":"Asia/Bangkok","value":"(UTC+07:00) Bangkok"},
	{"id":"Asia/Hanoi","value":"(UTC+07:00) Hanoi"},
	{"id":"Asia/Jakarta","value":"(UTC+07:00) Jakarta"},
	{"id":"Asia/Novosibirsk","value":"(UTC+07:00) Novosibirsk"},
	{"id":"Asia/Hong_Kong","value":"(UTC+08:00) Beijing"},
	{"id":"Asia/Chongqing","value":"(UTC+08:00) Chongqing"},
	{"id":"Asia/Hong_Kong","value":"(UTC+08:00) Hong Kong"},
	{"id":"Asia/Krasnoyarsk","value":"(UTC+08:00) Krasnoyarsk"},
	{"id":"Asia/Kuala_Lumpur","value":"(UTC+08:00) Kuala Lumpur"},
	{"id":"Australia/Perth","value":"(UTC+08:00) Perth"},
	{"id":"Asia/Singapore","value":"(UTC+08:00) Singapore"},
	{"id":"Asia/Taipei","value":"(UTC+08:00) Taipei"},
	{"id":"Asia/Ulan_Bator","value":"(UTC+08:00) Ulaan Bataar"},
	{"id":"Asia/Urumqi","value":"(UTC+08:00) Urumqi"},
	{"id":"Asia/Irkutsk","value":"(UTC+09:00) Irkutsk"},
	{"id":"Asia/Tokyo","value":"(UTC+09:00) Osaka"},
	{"id":"Asia/Tokyo","value":"(UTC+09:00) Sapporo"},
	{"id":"Asia/Seoul","value":"(UTC+09:00) Seoul"},
	{"id":"Asia/Tokyo","value":"(UTC+09:00) Tokyo"},
	{"id":"Australia/Adelaide","value":"(UTC+09:30) Adelaide"},
	{"id":"Australia/Darwin","value":"(UTC+09:30) Darwin"},
	{"id":"Australia/Brisbane","value":"(UTC+10:00) Brisbane"},
	{"id":"Australia/Canberra","value":"(UTC+10:00) Canberra"},
	{"id":"Pacific/Guam","value":"(UTC+10:00) Guam"},
	{"id":"Australia/Hobart","value":"(UTC+10:00) Hobart"},
	{"id":"Australia/Melbourne","value":"(UTC+10:00) Melbourne"},
	{"id":"Pacific/Port_Moresby","value":"(UTC+10:00) Port Moresby"},
	{"id":"Australia/Sydney","value":"(UTC+10:00) Sydney"},
	{"id":"Asia/Yakutsk","value":"(UTC+10:00) Yakutsk"},
	{"id":"Asia/Vladivostok","value":"(UTC+11:00) Vladivostok"},
	{"id":"Pacific/Auckland","value":"(UTC+12:00) Auckland"},
	{"id":"Pacific/Fiji","value":"(UTC+12:00) Fiji"},
	{"id":"Pacific/Kwajalein","value":"(UTC+12:00) International Date Line West"},
	{"id":"Asia/Kamchatka","value":"(UTC+12:00) Kamchatka"},
	{"id":"Asia/Magadan","value":"(UTC+12:00) Magadan"},
	{"id":"Pacific/Fiji","value":"(UTC+12:00) Marshall Is."},
	{"id":"Asia/Magadan","value":"(UTC+12:00) New Caledonia"},
	{"id":"Asia/Magadan","value":"(UTC+12:00) Solomon Is."},
	{"id":"Pacific/Auckland","value":"(UTC+12:00) Wellington"},
	{"id":"Pacific/Tongatapu","value":"(UTC+13:00) Nuku'alofa"}
]